ejercicios_con_pinguinos.utf8
…
---
## Ejercicio 4

### Predicción con train

```r
prediccion_train <- lm_fit %>% 
                predict(new_data = p_train) %>% 
                mutate(verdadero = p_train$masa_corporal_g)
prediccion_train
```

```
## # A tibble: 250 x 2
##    .pred verdadero
##    <dbl>     <int>
##  1 3191.      3750
##  2 3445.      3800
##  3 3900.      3250
##  4 3647.      3650
##  5 3191.      3625
##  6 3242.      3200
##  7 3698.      3800
##  8 4052.      4400
##  9 3394.      3700
## 10 3900.      3450
## # ... with 240 more rows
```
…
---
## Ejercicio 4

### Predicción con test

```r
prediccion_test <- lm_fit %>% 
                predict(new_data = p_test) %>% 
                mutate(verdadero = p_test$masa_corporal_g)

prediccion_test
```

```
## # A tibble: 83 x 2
##    .pred verdadero
##    <dbl>     <int>
##  1 3799.      3450
##  2 3900.      4675
##  3 4001.      4500
##  4 3343.      3325
##  5 2837.      3400
##  6 3495.      3200
##  7 3141.      3950
##  8 3039.      3250
##  9 3647.      3950
## 10 3191.      3300
## # ... with 73 more rows
```
…
