Regresión con datos de NFL_attendance
…
Hemos realizado un breve análisis exploratorio de datos, el cual siempre es una parte importante de la tarea de modelado. El siguiente paso es generar un conjunto de datos para modelar.

Eliminemos las semanas que cada equipo no jugó (es decir, donde la asistencia semanal es NA). Conservemos únicamente las columnas que queremos usar para el modelado. Por ejemplo, mantendremos margin_of_victory y Strength_of_schedule, pero no simple_rating, que es la suma de esas dos primeras cantidades.

attendance_df <- attendance_joined %>%
  filter(!is.na(weekly_attendance)) %>%
  select(
    weekly_attendance, team_name, year, week,
    margin_of_victory, strength_of_schedule, playoffs
  )
attendance_df

## # A tibble: 10,208 x 7
##    weekly_attendan~ team_name  year  week margin_of_victo~ strength_of_sch~
##               <dbl> <chr>     <dbl> <dbl>            <dbl>            <dbl>
##  1            77434 Cardinals  2000     1            -14.6             -0.7
##  2            66009 Cardinals  2000     2            -14.6             -0.7
##  3            71801 Cardinals  2000     4            -14.6             -0.7
##  4            66985 Cardinals  2000     5            -14.6             -0.7
##  5            44296 Cardinals  2000     6            -14.6             -0.7
##  6            38293 Cardinals  2000     7            -14.6             -0.7
##  7            62981 Cardinals  2000     8            -14.6             -0.7
##  8            35286 Cardinals  2000     9            -14.6             -0.7
##  9            52244 Cardinals  2000    10            -14.6             -0.7
## 10            64223 Cardinals  2000    11            -14.6             -0.7
## # ... with 10,198 more rows, and 1 more variable: playoffs <chr>

attendance_df_new <- attendance_df %>% drop_na()
attendance_df_new

## # A tibble: 10,208 x 7
##    weekly_attendan~ team_name  year  week margin_of_victo~ strength_of_sch~
##               <dbl> <chr>     <dbl> <dbl>            <dbl>            <dbl>
##  1            77434 Cardinals  2000     1            -14.6             -0.7
##  2            66009 Cardinals  2000     2            -14.6             -0.7
##  3            71801 Cardinals  2000     4            -14.6             -0.7
##  4            66985 Cardinals  2000     5            -14.6             -0.7
##  5            44296 Cardinals  2000     6            -14.6             -0.7
##  6            38293 Cardinals  2000     7            -14.6             -0.7
##  7            62981 Cardinals  2000     8            -14.6             -0.7
##  8            35286 Cardinals  2000     9            -14.6             -0.7
##  9            52244 Cardinals  2000    10            -14.6             -0.7
## 10            64223 Cardinals  2000    11            -14.6             -0.7
## # ... with 10,198 more rows, and 1 more variable: playoffs <chr>
…
¡Ahora es el momento de cargar el metapaquete tidymodels! 💪 El primer paso aquí es dividir nuestros datos en pruebas de entrenamiento y pruebas. Podemos usar initial_split () para crear estos conjuntos de datos, divididos para que cada uno tenga aproximadamente la misma cantidad de ejemplos de equipos que pasaron a los playoffs.

library(tidymodels)  #rsample

set.seed(1234)
attendance_split <- attendance_df_new %>%
  initial_split(strata = playoffs)

nfl_train <- training(attendance_split)
nfl_test <- testing(attendance_split)

nfl_test

## # A tibble: 2,552 x 7
##    weekly_attendan~ team_name  year  week margin_of_victo~ strength_of_sch~
##               <dbl> <chr>     <dbl> <dbl>            <dbl>            <dbl>
##  1            65356 Cardinals  2000    12            -14.6             -0.7
##  2            50289 Cardinals  2000    14            -14.6             -0.7
##  3            37452 Cardinals  2000    16            -14.6             -0.7
##  4            65711 Cardinals  2000    17            -14.6             -0.7
##  5            73025 Falcons    2000     3            -10.1              1.5
##  6            66019 Falcons    2000     7            -10.1              1.5
##  7            44680 Falcons    2000    14            -10.1              1.5
##  8            41017 Falcons    2000    17            -10.1              1.5
##  9            68481 Ravens     2000     4             10.5             -2.5
## 10            83252 Ravens     2000     7             10.5             -2.5
## # ... with 2,542 more rows, and 1 more variable: playoffs <chr>

nfl_train

## # A tibble: 7,656 x 7
##    weekly_attendan~ team_name  year  week margin_of_victo~ strength_of_sch~
##               <dbl> <chr>     <dbl> <dbl>            <dbl>            <dbl>
##  1            77434 Cardinals  2000     1            -14.6             -0.7
##  2            66009 Cardinals  2000     2            -14.6             -0.7
##  3            71801 Cardinals  2000     4            -14.6             -0.7
##  4            66985 Cardinals  2000     5            -14.6             -0.7
##  5            44296 Cardinals  2000     6            -14.6             -0.7
##  6            38293 Cardinals  2000     7            -14.6             -0.7
##  7            62981 Cardinals  2000     8            -14.6             -0.7
##  8            35286 Cardinals  2000     9            -14.6             -0.7
##  9            52244 Cardinals  2000    10            -14.6             -0.7
## 10            64223 Cardinals  2000    11            -14.6             -0.7
## # ... with 7,646 more rows, and 1 more variable: playoffs <chr>
…
results_test <- lm_fit %>%
  predict(new_data = nfl_test) %>%
  mutate(
    truth = nfl_test$weekly_attendance,
    model = "lm"
  ) %>%
  bind_rows(rf_fit %>%
    predict(new_data = nfl_test) %>%
    mutate(
      truth = nfl_test$weekly_attendance,
      model = "rf"
    ))
results_test

## # A tibble: 5,104 x 3
##     .pred truth model
##     <dbl> <dbl> <chr>
##  1 59162. 65356 lm   
##  2 59017. 50289 lm   
##  3 58871. 37452 lm   
##  4 58798. 65711 lm   
##  5 66880. 73025 lm   
##  6 66589. 66019 lm   
##  7 66079. 44680 lm   
##  8 65860. 41017 lm   
##  9 68096. 68481 lm   
## 10 67877. 83252 lm   
## # ... with 5,094 more rows
…
results_test %>%
  group_by(model) %>%
  rmse(truth = truth, estimate = .pred) #%>% view

## # A tibble: 2 x 4
##   model .metric .estimator .estimate
##   <chr> <chr>   <chr>          <dbl>
## 1 lm    rmse    standard       8351.
## 2 rf    rmse    standard       8573.

results_test

## # A tibble: 5,104 x 3
##     .pred truth model
##     <dbl> <dbl> <chr>
##  1 59162. 65356 lm   
##  2 59017. 50289 lm   
##  3 58871. 37452 lm   
##  4 58798. 65711 lm   
##  5 66880. 73025 lm   
##  6 66589. 66019 lm   
##  7 66079. 44680 lm   
##  8 65860. 41017 lm   
##  9 68096. 68481 lm   
## 10 67877. 83252 lm   
## # ... with 5,094 more rows
…
